module gitlab.com/n-digital/trainning-golang-microservice

go 1.14

require (
	github.com/Microsoft/go-winio v0.4.14 // indirect
	github.com/Selvatico/go-mocket v1.0.7
	github.com/alecthomas/template v0.0.0-20190718012654-fb15b899a751
	github.com/docker/distribution v2.7.1+incompatible // indirect
	github.com/docker/docker v1.13.1 // indirect
	github.com/docker/go-connections v0.4.0 // indirect
	github.com/docker/go-units v0.4.0 // indirect
	github.com/gin-gonic/gin v1.6.3
	github.com/golang-migrate/migrate v3.5.4+incompatible
	github.com/golang/mock v1.4.3
	github.com/jinzhu/copier v0.0.0-20190924061706-b57f9002281a
	github.com/jinzhu/gorm v1.9.12
	github.com/opencontainers/go-digest v1.0.0-rc1 // indirect
	github.com/pkg/errors v0.9.1
	github.com/pseidemann/finish v1.0.0
	github.com/stretchr/testify v1.5.1
	github.com/swaggo/gin-swagger v1.2.0
	github.com/swaggo/swag v1.6.5
)
